id;tag;version;custom;abstrct;datatype;iord;crdr;tlabel;doc
1;Markets Branding Concrete;eco-centric Senior;false;true;microchip;M;c;frictionless solution-oriented;distributed Computers
2;Money Market Account users Guinea;SQL lavender;true;true;Wooden COM Cambridge;S;o;incentivize purple;navigating Liaison
3;Corporate Lari;Sports Global Soft;true;false;Awesome Cotton Tuna;c;W;Future;pixel Phased payment
4;Towels Internal;seize generate;false;false;Chips microchip;G;B;International card;West Virginia Keys
5;Factors Soft;black Beauty;false;false;backing up indexing;S;r;interface Buckinghamshire;Investment Account Forge Licensed
6;auxiliary;Engineer Toys Fantas;false;false;Principal Soft Quali;C;U;feed invoice;Triple-buffered Borders magenta
7;Tasty Metal Chair Handcrafted Rubber Sausages Officer;Mississippi Product;false;false;card azure Frozen;D;R;Money Market Account Organic;Cliff
8;Tugrik magnetic interface;Kansas;true;true;bluetooth policy;T;I;Outdoors;Holy See (Vatican City State)
9;Data Tasty Steel Pants Licensed Steel Shirt;Manor;true;true;zero defect drive Pr;c;M;B2C systematic;program
10;Gorgeous Steel Salad Associate;Fantastic whiteboard;false;false;Data open-source Gen;F;U;parse;Intuitive
